9/19/2021, 12:56:16 PM: POST http://localhost:3000/api/v1/users/
9/19/2021, 12:56:27 PM: GET http://localhost:3000/api/v1/users/
9/19/2021, 12:57:06 PM: PUT http://localhost:3000/api/v1/users/2
9/19/2021, 1:01:04 PM: PUT http://localhost:3000/api/v1/users/2
